Representacion de un modelo
…
Por lo cual los valores observados y los ajustados se repreentaran en la siguiente tabla

## # A tibble: 150 x 7
##       ID Sepal_Length Sepal_Width Petal_Length Petal_Width Sepal_Length_hat
##    <int>        <dbl>       <dbl>        <dbl>       <dbl>            <dbl>
##  1     1          5.1         3.5          1.4         0.2             5.01
##  2     2          4.9         3            1.4         0.2             4.69
##  3     3          4.7         3.2          1.3         0.2             4.75
##  4     4          4.6         3.1          1.5         0.2             4.83
##  5     5          5           3.6          1.4         0.2             5.08
##  6     6          5.4         3.9          1.7         0.4             5.38
##  7     7          4.6         3.4          1.4         0.3             4.89
##  8     8          5           3.4          1.5         0.2             5.02
##  9     9          4.4         2.9          1.4         0.2             4.62
## 10    10          4.9         3.1          1.5         0.1             4.88
## # … with 140 more rows, and 1 more variable: residual <dbl>
…
