…
Por lo visto, los vehículos que tienen ocho y doce cilindros han ido aumentando en su desempeño durante el período 2014-2018, por lo cual se computa la siguente estadística para reafirmar está hipótesis.

## # A tibble: 38 x 6
## # Groups:   year [5]
##     year cylinders avg_city avg_highway median_city median_highway
##    <dbl>     <dbl>    <dbl>       <dbl>       <dbl>          <dbl>
##  1  2018         3     27.3        35.5          27           35  
##  2  2018         4     24.6        32.1          23           31  
##  3  2018         5     19          28.5          19           28.5
##  4  2018         6     18.6        25.7          18           26  
##  5  2018         8     15.1        21.8          15           22  
##  6  2018        10     13.9        21.6          14           21.5
##  7  2018        12     12.1        18.9          12           19  
##  8  2018        16      9          14             9           14  
##  9  2017         3     28.3        36.6          28           37  
## 10  2017         4     24.6        32.0          23           31  
## # … with 28 more rows
…
Parece ser que hay una buena relación

## Warning: Removed 210 rows containing missing values.

## # A tibble: 1,000 x 2
##    replicate  stat
##  *     <int> <dbl>
##  1         1 -2.66
##  2         2 -2.68
##  3         3 -2.67
##  4         4 -2.67
##  5         5 -2.68
##  6         6 -2.66
##  7         7 -2.67
##  8         8 -2.67
##  9         9 -2.67
## 10        10 -2.67
## # … with 990 more rows
…
## Warning: Removed 210 rows containing missing values.

## # A tibble: 1,000 x 2
##    replicate     stat
##  *     <int>    <dbl>
##  1         1 -0.0237 
##  2         2  0.0171 
##  3         3  0.0173 
##  4         4 -0.00627
##  5         5  0.00119
##  6         6 -0.00434
##  7         7 -0.00250
##  8         8 -0.0231 
##  9         9  0.00710
## 10        10 -0.00604
## # … with 990 more rows
…
