…
Con base a esta información se procede a trabajar el modelo de predicción:

idx_future <- idx %>% 
  tk_make_future_timeseries(n_future = 90)

future_tbl <- tibble(date = idx_future) 

future_predictions_tbl <- workflow_glmnet %>% 
    fit(data = bikes) %>%
    predict(future_tbl) %>%
    bind_cols(future_tbl)

future_predictions_tbl

## # A tibble: 90 x 2
##    .pred date      
##    <dbl> <date>    
##  1 5266. 2013-01-01
##  2 5191. 2013-01-02
##  3 5504. 2013-01-03
##  4 5544. 2013-01-04
##  5 5304. 2013-01-05
##  6 5045. 2013-01-06
##  7 5176. 2013-01-07
##  8 5502. 2013-01-08
##  9 5367. 2013-01-09
## 10 5657. 2013-01-10
## # … with 80 more rows
…
