…
Paso seguido Tuneare el modelo para así tener las regularizaciones necesarias , haré una partición de samples de 50 grupos con los siguientes resultados:

## # A tibble: 150 x 7
##     penalty .metric .estimator  mean     n std_err .config
##       <dbl> <chr>   <chr>      <dbl> <int>   <dbl> <fct>  
##  1 1.00e-10 npv     binary     0.944    25 0.00355 Model1 
##  2 1.00e-10 ppv     binary     0.920    25 0.00839 Model1 
##  3 1.00e-10 roc_auc binary     0.941    25 0.00541 Model1 
##  4 1.60e-10 npv     binary     0.944    25 0.00355 Model1 
##  5 1.60e-10 ppv     binary     0.920    25 0.00839 Model1 
##  6 1.60e-10 roc_auc binary     0.941    25 0.00541 Model1 
##  7 2.56e-10 npv     binary     0.944    25 0.00355 Model1 
##  8 2.56e-10 ppv     binary     0.920    25 0.00839 Model1 
##  9 2.56e-10 roc_auc binary     0.941    25 0.00541 Model1 
## 10 4.09e-10 npv     binary     0.944    25 0.00355 Model1 
## # … with 140 more rows
…
