…
dolar_table<-url%>%
  read_html()%>%
  html_node('#curr_table')%>%
  html_table()%>%
  tbl_df()

## Warning: `tbl_df()` is deprecated as of dplyr 1.0.0.
## Please use `tibble::as_tibble()` instead.
## This warning is displayed once every 8 hours.
## Call `lifecycle::last_warnings()` to see where this warning was generated.

dolar_table

## # A tibble: 23 x 6
##    Fecha      Último   Apertura Máximo   Mínimo   `% var.`
##    <chr>      <chr>    <chr>    <chr>    <chr>    <chr>   
##  1 23.09.2020 3.853,75 3.827,65 3.875,10 3.823,91 0,90%   
##  2 22.09.2020 3.819,34 3.789,50 3.841,65 3.777,77 1,03%   
##  3 21.09.2020 3.780,23 3.730,00 3.802,48 3.728,10 1,38%   
##  4 18.09.2020 3.728,88 3.715,11 3.739,00 3.710,59 0,41%   
##  5 17.09.2020 3.713,80 3.687,50 3.729,00 3.686,00 0,75%   
##  6 16.09.2020 3.686,00 3.700,10 3.720,00 3.680,16 -0,08%  
##  7 15.09.2020 3.689,00 3.691,91 3.704,26 3.668,11 -0,00%  
##  8 14.09.2020 3.689,13 3.705,50 3.723,50 3.667,00 -0,40%  
##  9 11.09.2020 3.703,88 3.710,10 3.726,10 3.688,00 -0,12%  
## 10 10.09.2020 3.708,48 3.713,91 3.716,66 3.675,00 0,08%   
## # … with 13 more rows
…
Serie<-dolar_table%>%
  rename('Cierre'='Último')%>%
  mutate(Fecha=(gsub('\\.','-',Fecha)),
         Apertura=gsub("\\.","",Apertura),
         Apertura=gsub(",",".",Apertura),
         Apertura=as.numeric(Apertura),
         Cierre=gsub("\\.","",Cierre),
         Cierre=gsub(",",".",Cierre),
         Cierre=as.numeric(Cierre))%>%
  select(c(Fecha,Apertura,Cierre))

Serie$Fecha<-lubridate::dmy(Serie$Fecha)
Serie

## # A tibble: 23 x 3
##    Fecha      Apertura Cierre
##    <date>        <dbl>  <dbl>
##  1 2020-09-23    3828.  3854.
##  2 2020-09-22    3790.  3819.
##  3 2020-09-21    3730   3780.
##  4 2020-09-18    3715.  3729.
##  5 2020-09-17    3688.  3714.
##  6 2020-09-16    3700.  3686 
##  7 2020-09-15    3692.  3689 
##  8 2020-09-14    3706.  3689.
##  9 2020-09-11    3710.  3704.
## 10 2020-09-10    3714.  3708.
## # … with 13 more rows
…
