…
Por lo visto, los vehículos que tienen ocho y doce cilindros han ido aumentando en su desempeño durante el período 2014-2018, por lo cual se computa la siguente estadística para reafirmar está hipótesis. 


{% highlight text %}
## # A tibble: 38 x 6
## # Groups:   year [5]
##     year cylinders avg_city avg_highway median_city median_highway
##    <dbl>     <dbl>    <dbl>       <dbl>       <dbl>          <dbl>
##  1  2018         3     27.3        35.5          27           35  
##  2  2018         4     24.6        32.1          23           31  
##  3  2018         5     19          28.5          19           28.5
##  4  2018         6     18.6        25.7          18           26  
##  5  2018         8     15.1        21.8          15           22  
##  6  2018        10     13.9        21.6          14           21.5
##  7  2018        12     12.1        18.9          12           19  
##  8  2018        16      9          14             9           14  
##  9  2017         3     28.3        36.6          28           37  
## 10  2017         4     24.6        32.0          23           31  
## # … with 28 more rows
…
Parece ser que hay una buena relación



{% highlight text %}
## Warning: Removed 210 rows containing missing values.
{% endhighlight %}



{% highlight text %}
## # A tibble: 1,000 x 2
##    replicate  stat
##        <int> <dbl>
##  1         1 -2.69
##  2         2 -2.66
##  3         3 -2.68
##  4         4 -2.64
##  5         5 -2.70
##  6         6 -2.68
##  7         7 -2.66
##  8         8 -2.68
##  9         9 -2.67
## 10        10 -2.67
## # … with 990 more rows
…
{% highlight text %}
## Warning: Removed 210 rows containing missing values.
{% endhighlight %}



{% highlight text %}
## # A tibble: 1,000 x 2
##    replicate      stat
##        <int>     <dbl>
##  1         1 -0.0182  
##  2         2  0.00966 
##  3         3 -0.00689 
##  4         4  0.0125  
##  5         5  0.00590 
##  6         6 -0.0137  
##  7         7  0.0144  
##  8         8 -0.00814 
##  9         9  0.00954 
## 10        10 -0.000669
## # … with 990 more rows
…
