…
Por lo cual los valores observados y los ajustados se repreentaran en la siguiente tabla


{% highlight text %}
## # A tibble: 150 x 7
##       ID Sepal_Length Sepal_Width Petal_Length Petal_Width Sepal_Length_hat
##    <int>        <dbl>       <dbl>        <dbl>       <dbl>            <dbl>
##  1     1          5.1         3.5          1.4         0.2             5.01
##  2     2          4.9         3            1.4         0.2             4.69
##  3     3          4.7         3.2          1.3         0.2             4.75
##  4     4          4.6         3.1          1.5         0.2             4.83
##  5     5          5           3.6          1.4         0.2             5.08
##  6     6          5.4         3.9          1.7         0.4             5.38
##  7     7          4.6         3.4          1.4         0.3             4.89
##  8     8          5           3.4          1.5         0.2             5.02
##  9     9          4.4         2.9          1.4         0.2             4.62
## 10    10          4.9         3.1          1.5         0.1             4.88
## # … with 140 more rows, and 1 more variable: residual <dbl>
…
Al considerar el modelo con la siguiente estructura


$$
\mbox{Sepal_Length}=\frac{k}{\mbox{Petal_width}}+b+e \sim LN(mean,sd)
$$
Donde K y b vienen por bootstrap, y por lo cual los calculos dan el siguiente resultado (sample head)


{% highlight text %}
## # Bootstrap sampling 
## # A tibble: 100 x 2
##    splits           id          
##    <list>           <chr>       
##  1 <split [150/58]> Bootstrap001
##  2 <split [150/61]> Bootstrap002
##  3 <split [150/55]> Bootstrap003
##  4 <split [150/53]> Bootstrap004
##  5 <split [150/52]> Bootstrap005
##  6 <split [150/58]> Bootstrap006
##  7 <split [150/55]> Bootstrap007
##  8 <split [150/54]> Bootstrap008
##  9 <split [150/59]> Bootstrap009
## 10 <split [150/52]> Bootstrap010
## # … with 90 more rows
…
