…
weight_mean_ht <- ncbirths %>%
  specify(response = weight) %>%
  hypothesize(null = "point", mu = 7) %>% 
  generate(reps = n_replicates, type = "bootstrap") %>% 
  calculate(stat = "mean")


weight_mean_ht
{% endhighlight %}



{% highlight text %}
## # A tibble: 1,500 x 2
##    replicate  stat
##        <int> <dbl>
##  1         1  6.95
##  2         2  6.96
##  3         3  7.00
##  4         4  7.00
##  5         5  7.05
##  6         6  6.93
##  7         7  6.99
##  8         8  7.04
##  9         9  7.04
## 10        10  6.97
## # … with 1,490 more rows
…
