…
{% highlight r %}
iris_train%>%
  group_by(Species)%>%
  summarize(lm_model = list(lm(Sepal.Length~Sepal.Width+Petal.Length+Petal.Width)))%>%
  mutate(stats_model=map(lm_model,tidy,conf.int=TRUE))%>%
  mutate(prediction=map(lm_model,predict,iris_test))%>%
  unnest(prediction)
{% endhighlight %}



{% highlight text %}
## # A tibble: 108 x 4
##    Species lm_model stats_model
##    <fct>   <list>   <list>     
##  1 setosa  <lm>     <tibble [4…
##  2 setosa  <lm>     <tibble [4…
##  3 setosa  <lm>     <tibble [4…
##  4 setosa  <lm>     <tibble [4…
##  5 setosa  <lm>     <tibble [4…
##  6 setosa  <lm>     <tibble [4…
##  7 setosa  <lm>     <tibble [4…
##  8 setosa  <lm>     <tibble [4…
##  9 setosa  <lm>     <tibble [4…
## 10 setosa  <lm>     <tibble [4…
## # … with 98 more rows, and 1 more
## #   variable: prediction <dbl>
…
Se evalua el modelo



{% highlight r %}
lm_fit%>%
  predict(new_data=iris_train)%>%
  mutate(truth=iris_train$Sepal.Length,
         accuracy=.pred/truth)
{% endhighlight %}



{% highlight text %}
## # A tibble: 114 x 3
##    .pred truth accuracy
##    <dbl> <dbl>    <dbl>
##  1  4.99   5.1    0.979
##  2  4.75   4.9    0.969
##  3  4.76   4.7    1.01 
##  4  4.88   4.6    1.06 
##  5  5.04   5      1.01 
##  6  5.37   5.4    0.995
##  7  4.91   4.6    1.07 
##  8  5.02   5      1.00 
##  9  4.90   4.9    1.00 
## 10  5.17   5.4    0.957
## # … with 104 more rows
…
