…
Interesante que el que más aporta es la no cooperación. Esto sería pertinente para un análisis sociologico. 

## NLP

En está parte seguiré solo con el caso de España, por curiosidad a los resultados. En está parte trabajaré en el diseño de `targets` lo cual facilitará el trabajo de construir un modelo.

Con un análisis de bigrams podré entender como crear unos targets después de verficar los patrones.


{% highlight text %}
## # A tibble: 26 x 2
##    bigram               n
##  * <chr>            <int>
##  1 non compliance       3
##  2 basis for            2
##  3 compliance with      2
##  4 data processing      2
##  5 failure to           2
##  6 for data             2
##  7 lawful basis         2
##  8 with lawful          2
##  9 cooperate with       1
## 10 cooperation with     1
## # … with 16 more rows
{% endhighlight %}


Notesé que las palabas acá señaladas tienen ya forma de un target.


{% highlight text %}
## # A tibble: 35 x 3
##     line word1      word2     
##    <int> <chr>      <chr>     
##  1     1 non        compliance
##  2     1 compliance with      
##  3     1 with       lawful    
##  4     1 lawful     basis     
##  5     1 basis      for       
##  6     1 for        data      
##  7     1 data       processing
##  8     2 failure    to        
##  9     2 to         cooperate 
## 10     2 cooperate  with      
## # … with 25 more rows
{% endhighlight %}

Más falta un poco de trabajo estadístico sobre este modelo. Lo primero a desarrollar es la unión entre las palabras.



{% highlight text %}
## # A tibble: 35 x 2
##     line bigram         
##    <int> <chr>          
##  1     1 non compliance 
##  2     1 compliance with
##  3     1 with lawful    
##  4     1 lawful basis   
##  5     1 basis for      
##  6     1 for data       
##  7     1 data processing
##  8     2 failure to     
##  9     2 to cooperate   
## 10     2 cooperate with 
## # … with 25 more rows
…
Paso seguido un análisis de frecuencia y correlación

{% highlight r %}
grams_tf_idf <- grams_united %>%
  count(line, bigram) %>%
  bind_tf_idf(bigram, line, n) %>%
  arrange(desc(tf_idf))

grams_tf_idf
{% endhighlight %}



{% highlight text %}
## # A tibble: 35 x 6
##     line bigram        n    tf
##    <int> <chr>     <int> <dbl>
##  1     5 informat…     1 0.333
##  2     5 obligati…     1 0.333
##  3     2 cooperat…     1 0.2  
##  4     2 supervis…     1 0.2  
##  5     2 to coope…     1 0.2  
##  6     2 with sup…     1 0.2  
##  7     6 cooperat…     1 0.2  
##  8     6 data pro…     1 0.2  
##  9     6 non coop…     1 0.2  
## 10     6 protecti…     1 0.2  
## # … with 25 more rows, and 2
## #   more variables:
## #   idf <dbl>, tf_idf <dbl>
…
