…
Tidyverse Fourth Function: Create Models
========================================================

```r
iris%>%
  group_by(Species)%>%
  summarize(Lineal_model=list(lm(Petal.Length~Sepal.Length+Sepal.Width+Petal.Width)))%>%
  mutate(tidies=map(Lineal_model,tidy,conf.int = TRUE))%>%
  mutate(predictions=map(Lineal_model,predict))%>%
  unnest(predictions)
```

```
# A tibble: 150 x 4
   Species Lineal_model tidies           predictions
   <fct>   <list>       <list>                 <dbl>
 1 setosa  <lm>         <tibble [4 × 7]>        1.45
 2 setosa  <lm>         <tibble [4 × 7]>        1.44
 3 setosa  <lm>         <tibble [4 × 7]>        1.41
 4 setosa  <lm>         <tibble [4 × 7]>        1.40
 5 setosa  <lm>         <tibble [4 × 7]>        1.44
 6 setosa  <lm>         <tibble [4 × 7]>        1.57
 7 setosa  <lm>         <tibble [4 × 7]>        1.44
 8 setosa  <lm>         <tibble [4 × 7]>        1.44
 9 setosa  <lm>         <tibble [4 × 7]>        1.39
10 setosa  <lm>         <tibble [4 × 7]>        1.39
# … with 140 more rows
```
…
Tidyverse Sixth Function: Coefficients of mutiple models
========================================================


```r
pokemon%>%
  filter(!is.na(Type.1))%>%
  group_by(Type.1)%>%
  summarize(lm_model=list(lm(Total~Attack)))%>%
  mutate(coef=map(lm_model,tidy,conf.int=TRUE))%>%
  unnest(coef)
```

```
# A tibble: 36 x 9
   Type.1 lm_model term  estimate std.error statistic  p.value conf.low
   <fct>  <list>   <chr>    <dbl>     <dbl>     <dbl>    <dbl>    <dbl>
 1 Bug    <lm>     (Int…   206.      20.1       10.3  1.97e-15   166.  
 2 Bug    <lm>     Atta…     2.43     0.251      9.69 2.26e-14     1.93
 3 Dark   <lm>     (Int…   185.      51.9        3.57 1.27e- 3    79.1 
 4 Dark   <lm>     Atta…     2.95     0.564      5.22 1.37e- 5     1.79
 5 Dragon <lm>     (Int…   174.      58.4        2.97 5.80e- 3    54.3 
 6 Dragon <lm>     Atta…     3.36     0.500      6.73 1.85e- 7     2.34
 7 Elect… <lm>     (Int…   239.      37.5        6.39 1.09e- 7   164.  
 8 Elect… <lm>     Atta…     2.95     0.513      5.75 9.08e- 7     1.92
 9 Fairy  <lm>     (Int…   235.      52.4        4.48 4.38e- 4   123.  
10 Fairy  <lm>     Atta…     2.90     0.771      3.76 1.91e- 3     1.25
# … with 26 more rows, and 1 more variable: conf.high <dbl>
```
Tidyverse Sixth Function: Coefficients of mutiple models
========================================================


```r
pokemon%>%
  filter(!is.na(Type.1))%>%
  group_by(Type.1)%>%
  summarize(lm_model=list(lm(Total~Attack)))%>%
  mutate(coef=map(lm_model,tidy,conf.int=TRUE))%>%
  unnest(coef)
```

```
# A tibble: 36 x 9
   Type.1 lm_model term  estimate std.error statistic  p.value conf.low
   <fct>  <list>   <chr>    <dbl>     <dbl>     <dbl>    <dbl>    <dbl>
 1 Bug    <lm>     (Int…   206.      20.1       10.3  1.97e-15   166.  
 2 Bug    <lm>     Atta…     2.43     0.251      9.69 2.26e-14     1.93
 3 Dark   <lm>     (Int…   185.      51.9        3.57 1.27e- 3    79.1 
 4 Dark   <lm>     Atta…     2.95     0.564      5.22 1.37e- 5     1.79
 5 Dragon <lm>     (Int…   174.      58.4        2.97 5.80e- 3    54.3 
 6 Dragon <lm>     Atta…     3.36     0.500      6.73 1.85e- 7     2.34
 7 Elect… <lm>     (Int…   239.      37.5        6.39 1.09e- 7   164.  
 8 Elect… <lm>     Atta…     2.95     0.513      5.75 9.08e- 7     1.92
 9 Fairy  <lm>     (Int…   235.      52.4        4.48 4.38e- 4   123.  
10 Fairy  <lm>     Atta…     2.90     0.771      3.76 1.91e- 3     1.25
# … with 26 more rows, and 1 more variable: conf.high <dbl>
```
…
