tidytuesday #17
…
Interesante que el que más aporta es la no cooperación. Esto sería pertinente para un análisis sociologico.

NLP

En está parte seguiré solo con el caso de España, por curiosidad a los resultados. En está parte trabajaré en el diseño de targets lo cual facilitará el trabajo de construir un modelo.

Con un análisis de bigrams podré entender como crear unos targets después de verficar los patrones.

## # A tibble: 26 x 2
##    bigram               n
##    <chr>            <int>
##  1 non compliance       3
##  2 basis for            2
##  3 compliance with      2
##  4 data processing      2
##  5 failure to           2
##  6 for data             2
##  7 lawful basis         2
##  8 with lawful          2
##  9 cooperate with       1
## 10 cooperation with     1
## # … with 16 more rows
Notesé que las palabas acá señaladas tienen ya forma de un target.

## # A tibble: 6 x 3
##    line word1      word2     
##   <int> <chr>      <chr>     
## 1     1 non        compliance
## 2     1 compliance with      
## 3     1 with       lawful    
## 4     1 lawful     basis     
## 5     1 basis      for       
## 6     1 for        data

Más falta un poco de trabajo estadístico sobre este modelo. Lo primero a desarrollar es la unión entre las palabras.

## # A tibble: 35 x 2
##     line bigram         
##    <int> <chr>          
##  1     1 non compliance 
##  2     1 compliance with
##  3     1 with lawful    
##  4     1 lawful basis   
##  5     1 basis for      
##  6     1 for data       
##  7     1 data processing
##  8     2 failure to     
##  9     2 to cooperate   
## 10     2 cooperate with 
## # … with 25 more rows
…
Las distribuciones de probabilidades dan seña que el trabajo va por buen camino. Ahora un camino más espinoso, generar el target y eliminar la inceritdumbre.

## # A tibble: 28 x 4
##    document term       count .topic
##    <chr>    <chr>      <dbl>  <dbl>
##  1 1        basis          1      4
##  2 3        basis          1      4
##  3 1        compliance     1      3
##  4 3        compliance     1      3
##  5 5        compliance     1      3
##  6 1        data           1      4
##  7 3        data           1      4
##  8 6        data           1      4
##  9 1        lawful         1      4
## 10 3        lawful         1      4
## # … with 18 more rows

El paso más importante es eliminar la incertidumbre y para ello se realiza el siguiente proceso: Las palabras que contradigan al documento versus la ley seran expulsadas.

## # A tibble: 102 x 4
##    document topic gamma word      
##       <dbl> <int> <dbl> <chr>     
##  1        4     4 0.161 <NA>      
##  2        4     1 0.161 <NA>      
##  3        1     5 0.162 <NA>      
##  4        3     5 0.162 <NA>      
##  5        4     6 0.163 <NA>      
##  6        6     2 0.163 compliance
##  7        6     2 0.163 lawful    
##  8        6     2 0.163 basis     
##  9        6     2 0.163 data      
## 10        6     2 0.163 processing
## # … with 92 more rows
…
