tidymetrics and shinydahs
…
Is incredible!!! but now I wanna make new levels

grosses%>%
  group_by(show)%>%
  count(sort = TRUE)

## # A tibble: 1,122 x 2
## # Groups:   show [1,122]
##    show                         n
##    <chr>                    <int>
##  1 The Phantom of the Opera  1677
##  2 Chicago                   1218
##  3 The Lion King             1166
##  4 Les Miserables            1040
##  5 Cats                       874
##  6 Wicked                     855
##  7 Mamma Mia!                 727
##  8 Beauty and the Beast       690
##  9 Rent                       647
## 10 Jersey Boys                588
## # … with 1,112 more rows
…
